1, Espaghetti carbonara, 8.90, 10796e8c, 1
2, Tortellini al pesto, 7.50, 4f7201f7, 1
3, Fusilli con pollo, 9.60, d0e45c1b, 1
4, Canelones de verduras, 10.20, 312ac3db, 1
5, Pizza Margarita, 9, 0, 1
6, Pizza barbacoa, 11.20, 0, 1
7, Pizza cuatro estaciones, 10.70, 0, 1
8, Agua 50cL, 1.5, 0, 1
9, Vino tinto 70cL, 12.50, 0, 1
10, Lambrusco, 8.50, 0, 1
11, Cerveza 33cL, 2.5, 0, 1
